Ionel;Pacuraru;1234567890876;ASISTENT;2500;0
Mihai;Dumitrescu;1244567890876;LECTURER;2500;1
Ionela;Ionescu;1235567890876;LECTURER;2500;2
Mihaela;Pacuraru;1234567890876;ASISTENT;2600;3
Vasile;Georgescu;1234567890876;TEACHER;2700;4
Marin;Puscas;1234567890876;TEACHER;2800;5
ana;pop;1234567891234;ASISTENT;100.0;6
con;lor;1234567891234;ASISTENT;101.0;7
costi;ionica;1234567891234;CONFERENTIAR;99.0;8
Ana;Ionescu;1234567891234;ASISTENT;1000.0;9
POPO;LOLO;1234567890123;ASISTENT;23.0;10
Morar;Lazar;1244567890876;ASISTENT;2560.0;11
Mane;Ion;1244567890876;ASISTENT;2000.0;12
Mane;Ion;1244567890876;ASISTENT;2000.0;13
Mane;Ion;1244567890876;ASISTENT;2000.0;14
Morar;Lazar;1244567890876;ASISTENT;2560.0;15
Morar;Lazar;1244567890876;ASISTENT;2560.0;16
Morar;Lazar;1244567890876;ASISTENT;2560.0;17
Mane;Ion;1244567890876;ASISTENT;2000.0;18
Mane;Ion;1244567890876;ASISTENT;2000.0;19
Morar;Lazar;1244567890876;ASISTENT;2560.0;20
Mane;Ion;1244567890876;ASISTENT;2000.0;21
Morar;Lazar;1244567890876;ASISTENT;2560.0;22
Mane;Ion;1244567890876;ASISTENT;2000.0;23
